# Blender 3.4.1
# www.blender.org
mtllib stove_decor_triangle.mtl
o DoorDecoArrow
v 1.030296 0.536282 -0.016850
v 1.030296 0.576639 0.000871
v 1.030296 0.536282 -0.017366
v 1.030296 0.576639 -0.039486
v 1.037086 0.536282 -0.016850
v 1.037086 0.576639 0.000871
v 1.037086 0.536282 -0.017366
v 1.037086 0.576639 -0.039486
v 1.031231 0.536282 -0.017366
v 1.031231 0.576639 -0.039486
v 1.031231 0.536282 -0.016850
v 1.031231 0.576639 0.000871
v 1.035810 0.576639 -0.039486
v 1.035810 0.536282 -0.016850
v 1.035810 0.536282 -0.017366
v 1.035810 0.576639 0.000871
v 1.030296 0.536282 -0.016859
v 1.030296 0.576639 0.000117
v 1.037086 0.536282 -0.016859
v 1.037086 0.576639 0.000117
v 1.031231 0.576639 0.000117
v 1.031231 0.536282 -0.016859
v 1.035810 0.576639 0.000117
v 1.035810 0.536282 -0.016859
v 1.030296 0.536487 -0.016760
v 1.030296 0.536487 -0.017479
v 1.037086 0.536487 -0.017479
v 1.037086 0.536487 -0.016760
v 1.031231 0.536487 -0.016760
v 1.031231 0.536487 -0.017479
v 1.035810 0.536487 -0.016760
v 1.035810 0.536487 -0.017479
v 1.037086 0.536487 -0.016773
v 1.030296 0.536487 -0.016773
v 1.030296 0.576639 -0.038382
v 1.037086 0.536282 -0.017352
v 1.030296 0.536282 -0.017352
v 1.037086 0.576639 -0.038382
v 1.031231 0.576639 -0.038382
v 1.031231 0.536282 -0.017352
v 1.035810 0.576639 -0.038382
v 1.035810 0.536282 -0.017352
v 1.037086 0.536487 -0.017459
v 1.030296 0.536487 -0.017459
v 1.030296 0.575927 0.000559
v 1.030296 0.575927 -0.039095
v 1.037086 0.575927 -0.039095
v 1.037086 0.575927 0.000559
v 1.031231 0.575927 0.000559
v 1.031231 0.575927 -0.039095
v 1.035810 0.575927 0.000559
v 1.035810 0.575927 -0.039095
v 1.037086 0.575927 -0.000183
v 1.030296 0.575927 -0.000183
v 1.037086 0.575927 -0.038011
v 1.030296 0.575927 -0.038011
v 1.030296 0.537179 -0.017858
v 1.037086 0.537179 -0.017858
v 1.037086 0.537179 -0.016456
v 1.031231 0.537179 -0.016456
v 1.031231 0.537179 -0.017858
v 1.035810 0.537179 -0.016456
v 1.035810 0.537179 -0.017858
v 1.037086 0.537179 -0.016482
v 1.030296 0.537179 -0.016482
v 1.037086 0.537179 -0.017820
v 1.030296 0.537179 -0.017820
v 1.030296 0.537179 -0.016456
vn -1.0000 -0.0000 -0.0000
vn -0.0000 -0.4806 -0.8769
vn 1.0000 -0.0000 -0.0000
vn -0.0000 -0.4021 0.9156
vn -0.0000 -1.0000 -0.0000
vn -0.0000 1.0000 -0.0000
vt 0.125000 0.750000
vt 0.375000 0.000000
vt 0.375000 1.000000
vt 0.625000 1.000000
vt 0.875000 0.750000
vt 0.625000 0.000000
vt 0.375000 0.250000
vt 0.125000 0.500000
vt 0.625000 0.250000
vt 0.875000 0.500000
vt 0.375000 0.750000
vt 0.625000 0.750000
vt 0.375000 0.500000
vt 0.625000 0.500000
vt 0.375000 0.284396
vt 0.159396 0.500000
vt 0.625000 0.284396
vt 0.840604 0.500000
vt 0.159396 0.750000
vt 0.375000 0.965604
vt 0.840604 0.750000
vt 0.625000 0.965604
vt 0.625000 0.453009
vt 0.671991 0.500000
vt 0.328009 0.750000
vt 0.375000 0.796991
vt 0.375000 0.453009
vt 0.328009 0.500000
vt 0.625000 0.796991
vt 0.671991 0.750000
vt 0.125000 0.745324
vt 0.375000 0.004676
vt 0.875000 0.745324
vt 0.625000 0.004676
vt 0.375000 0.745324
vt 0.625000 0.745324
vt 0.840604 0.745324
vt 0.159396 0.745324
vt 0.671991 0.745324
vt 0.328009 0.745324
vt 0.376272 1.000000
vt 0.376272 0.000000
vt 0.376272 0.250000
vt 0.376272 0.500000
vt 0.376272 0.750000
vt 0.376272 0.965604
vt 0.376272 0.284396
vt 0.376272 0.796991
vt 0.376272 0.453009
vt 0.376272 0.745324
vt 0.376272 0.004676
vt 0.875000 0.506836
vt 0.625000 0.243164
vt 0.375000 0.514846
vt 0.375000 0.231149
vt 0.125000 0.506836
vt 0.625000 0.506836
vt 0.840604 0.506836
vt 0.159396 0.506836
vt 0.671991 0.506836
vt 0.328009 0.506836
vt 0.376272 0.498626
vt 0.376272 0.251374
vt 0.620588 0.000000
vt 0.620588 1.000000
vt 0.620588 0.250000
vt 0.620588 0.500000
vt 0.620588 0.750000
vt 0.620588 0.965604
vt 0.620588 0.284396
vt 0.620588 0.796991
vt 0.620588 0.453009
vt 0.620588 0.745324
vt 0.620588 0.004676
vt 0.620588 0.506690
vt 0.620588 0.243310
vt 0.380558 0.250000
vt 0.380558 0.500000
vt 0.380558 0.750000
vt 0.380558 0.965604
vt 0.380558 0.284396
vt 0.380558 0.796991
vt 0.380558 0.453009
vt 0.380558 0.745324
vt 0.380558 0.004676
vt 0.380558 0.498767
vt 0.380558 0.251232
vt 0.380558 1.000000
vt 0.380558 0.000000
s 0
f 56/76/1 35/53/1 4/9/1 46/66/1
f 52/72/2 13/23/2 8/14/2 47/67/2
f 53/73/3 20/36/3 6/12/3 48/68/3
f 49/69/4 12/22/4 2/4/4 45/65/4
f 24/40/5 19/35/5 5/11/5 14/25/5
f 21/37/6 18/33/6 2/5/6 12/21/6
f 23/39/6 21/37/6 12/21/6 16/30/6
f 17/31/5 22/38/5 11/19/5 1/1/5
f 51/71/4 16/29/4 12/22/4 49/69/4
f 46/66/2 4/9/2 10/17/2 50/70/2
f 48/68/4 6/12/4 16/29/4 51/71/4
f 20/36/6 23/39/6 16/30/6 6/12/6
f 22/38/5 24/40/5 14/25/5 11/19/5
f 50/70/2 10/17/2 13/23/2 52/72/2
f 40/59/5 42/61/5 24/40/5 22/38/5
f 38/57/6 41/60/6 23/39/6 20/36/6
f 37/56/5 40/59/5 22/38/5 17/31/5
f 41/60/6 39/58/6 21/37/6 23/39/6
f 39/58/6 35/52/6 18/33/6 21/37/6
f 42/61/5 36/54/5 19/35/5 24/40/5
f 55/75/3 38/57/3 20/36/3 53/73/3
f 45/64/1 2/6/1 18/34/1 54/74/1
f 1/2/1 25/42/1 34/51/1 17/32/1
f 36/54/3 43/62/3 33/50/3 19/35/3
f 9/15/2 30/47/2 32/49/2 15/27/2
f 5/11/4 28/45/4 31/48/4 14/26/4
f 3/7/2 26/43/2 30/47/2 9/15/2
f 14/26/4 31/48/4 29/46/4 11/20/4
f 11/20/4 29/46/4 25/41/4 1/3/4
f 19/35/3 33/50/3 28/45/3 5/11/3
f 15/27/2 32/49/2 27/44/2 7/13/2
f 37/55/1 44/63/1 26/43/1 3/7/1
f 17/32/1 34/51/1 44/63/1 37/55/1
f 7/13/3 27/44/3 43/62/3 36/54/3
f 47/67/3 8/14/3 38/57/3 55/75/3
f 15/28/5 7/13/5 36/54/5 42/61/5
f 10/18/6 4/10/6 35/52/6 39/58/6
f 13/24/6 10/18/6 39/58/6 41/60/6
f 3/8/5 9/16/5 40/59/5 37/56/5
f 8/14/6 13/24/6 41/60/6 38/57/6
f 9/16/5 15/28/5 42/61/5 40/59/5
f 54/74/1 18/34/1 35/53/1 56/76/1
f 65/85/1 54/74/1 56/76/1 67/87/1
f 58/78/3 47/67/3 55/75/3 66/86/3
f 68/89/1 45/64/1 54/74/1 65/85/1
f 66/86/3 55/75/3 53/73/3 64/84/3
f 61/81/2 50/70/2 52/72/2 63/83/2
f 59/79/4 48/68/4 51/71/4 62/82/4
f 57/77/2 46/66/2 50/70/2 61/81/2
f 62/82/4 51/71/4 49/69/4 60/80/4
f 60/80/4 49/69/4 45/65/4 68/88/4
f 64/84/3 53/73/3 48/68/3 59/79/3
f 63/83/2 52/72/2 47/67/2 58/78/2
f 67/87/1 56/76/1 46/66/1 57/77/1
f 44/63/1 67/87/1 57/77/1 26/43/1
f 32/49/2 63/83/2 58/78/2 27/44/2
f 33/50/3 64/84/3 59/79/3 28/45/3
f 29/46/4 60/80/4 68/88/4 25/41/4
f 31/48/4 62/82/4 60/80/4 29/46/4
f 26/43/2 57/77/2 61/81/2 30/47/2
f 28/45/4 59/79/4 62/82/4 31/48/4
f 30/47/2 61/81/2 63/83/2 32/49/2
f 43/62/3 66/86/3 64/84/3 33/50/3
f 25/42/1 68/89/1 65/85/1 34/51/1
f 27/44/3 58/78/3 66/86/3 43/62/3
f 34/51/1 65/85/1 67/87/1 44/63/1
