# This file uses centimeters as units for non-parametric coordinates.

mtllib ground.mtl
g default
v 93.088028 0.000000 69.438278
v 93.088036 0.000000 -69.438271
v -93.088036 0.000000 69.438271
v -93.088028 0.000000 -69.438278
v 93.088036 0.000000 0.000000
v -93.088036 -0.000019 0.000000
v 0.000000 0.000000 69.438278
v 0.000000 0.000000 0.000000
v 0.000000 0.000000 -69.438278
vt 0.004883 0.500000
vt 0.004883 0.004883
vt 0.374211 0.004883
vt 0.374211 0.500000
vt 0.743540 0.004883
vt 0.743540 0.500000
vt 0.004883 0.995117
vt 0.374211 0.995117
vt 0.743540 0.995117
vn -0.000000 1.000000 -0.000000
vn 0.000000 1.000000 0.000000
vn 0.000000 1.000000 0.000000
vn -0.000000 1.000000 0.000000
vn 0.000000 1.000000 0.000000
vn -0.000000 1.000000 0.000000
vn -0.000000 1.000000 -0.000000
vn -0.000000 1.000000 -0.000000
vn -0.000000 1.000000 0.000000
s 1
g ground walls_geo_grp ADJ MOV POS walls_grp
usemtl initialShadingGroup
f 7/1/1 1/2/2 5/3/3 8/4/4
f 5/3/3 2/5/5 9/6/6 8/4/4
f 3/7/7 7/1/1 8/4/4 6/8/8
f 9/6/6 4/9/9 6/8/8 8/4/4
