# This file uses centimeters as units for non-parametric coordinates.

mtllib HouseGlue.mtl
g default
v 93.088028 76.040611 69.438278
v 93.088036 76.040611 -69.438271
v -93.088036 76.040611 69.438271
v -93.088028 76.040611 -69.438278
v 93.088036 76.040611 0.000000
v -93.088036 76.040611 0.000000
v 0.000000 168.282043 69.438278
v 0.000000 168.282043 -69.438278
v 0.000000 168.281982 0.000000
v 0.000000 76.040596 -69.438278
v 0.000000 76.040596 69.438278
v -93.088036 76.040611 23.146093
v 0.000000 168.281998 23.146095
v 93.088028 76.040611 23.146095
v -93.088036 76.040611 66.429276
v 0.000000 168.282043 66.429291
v 93.088028 76.040611 66.429291
v -93.088028 76.040611 -66.197823
v 0.000000 168.282043 -66.197823
v 93.088036 76.040611 -66.197815
v -93.088028 76.040611 -23.146091
v 0.000000 168.281998 -23.146091
v 93.088036 76.040611 -23.146090
v 1.839975 166.458801 69.438278
v 1.846587 166.452255 66.429291
v 1.942161 166.357498 23.146095
v 1.993297 166.306824 0.000000
v 2.044390 166.256195 -23.146090
v 2.139470 166.162033 -66.197823
v 2.146612 166.154953 -69.438278
v -1.857115 166.441818 -69.438278
v -1.868090 166.430954 -66.197823
v -2.014331 166.285995 -23.146091
v -2.092954 166.208069 0.000000
v -2.171558 166.130188 23.146095
v -2.318732 165.984406 66.429291
v -2.328914 165.974319 69.438278
v 2.792638 76.040596 -69.438278
v -2.783053 76.040596 -69.438278
v -3.438645 76.040596 69.438278
v 3.220660 76.040596 69.438278
v -89.444336 76.040604 69.438271
v -2.362472 163.254730 69.438278
v 0.000000 165.620789 69.438278
v 1.881791 163.720398 69.438278
v 88.703041 76.040604 69.438278
v 88.828003 76.040611 -69.438271
v 2.167036 163.306061 -69.438278
v 0.000000 165.488235 -69.438278
v -1.886216 163.600677 -69.438278
v -89.383171 76.040611 -69.438278
v 93.088028 0.097763 69.438278
v 93.088028 0.097763 66.429291
v -93.088036 0.097763 69.438271
v -93.088036 0.097763 66.429276
v 93.088036 0.097763 0.000000
v 93.088036 0.097763 -23.146090
v -93.088036 0.097763 0.000000
v -93.088028 0.097763 -23.146091
v 93.088036 0.097763 -69.438271
v 88.828003 0.097763 -69.438271
v -89.444336 0.097755 69.438271
v 0.000000 0.097748 69.438278
v 3.220660 0.097748 69.438278
v -93.088036 0.097763 23.146093
v 93.088028 0.097763 23.146095
v -93.088028 0.097763 -66.197823
v -93.088028 0.097763 -69.438278
v 93.088036 0.097763 -66.197815
v -89.383171 0.097763 -69.438278
v -3.438645 0.097748 69.438278
v 88.703041 0.097755 69.438278
v -71.289398 0.097754 69.438278
v -37.876614 0.097751 69.438278
v -71.778519 61.242413 69.438271
v -38.279552 61.370701 69.438278
v 35.157310 0.097755 -69.438278
v 2.792639 63.986809 -69.438278
v 0.000000 64.007484 -69.438278
v -2.783053 63.938965 -69.438278
v -33.262974 0.097755 -69.438278
v 35.099102 63.515041 -69.438278
v -33.131790 63.374607 -69.438278
v 30.275494 0.097750 69.438278
v 64.920662 0.097753 69.438278
v 29.321627 69.186546 69.438278
v 64.628540 69.425743 69.438278
vt 0.267026 0.208795
vt 0.231771 0.208795
vt 0.231771 0.204519
vt 0.267026 0.204519
vt 0.480443 0.150126
vt 0.476113 0.150126
vt 0.479430 0.146372
vt 0.483677 0.146372
vt 0.626634 0.142358
vt 0.622477 0.142358
vt 0.489371 0.011540
vt 0.489371 0.004883
vt 0.126005 0.204519
vt 0.130941 0.204519
vt 0.130941 0.208795
vt 0.126005 0.208795
vt 0.625898 0.150577
vt 0.621770 0.150577
vt 0.625362 0.146199
vt 0.629402 0.146199
vt 0.480880 0.142846
vt 0.476561 0.142846
vt 0.343474 0.010514
vt 0.343474 0.004883
vt 0.126005 0.200032
vt 0.130941 0.200033
vt 0.126005 0.204519
vt 0.231771 0.200032
vt 0.267026 0.200033
vt 0.332953 0.204519
vt 0.332953 0.200033
vt 0.332953 0.208795
vt 0.337536 0.204519
vt 0.337536 0.200032
vt 0.337537 0.208795
vt 0.337537 0.204519
vt 0.196516 0.200032
vt 0.196516 0.204519
vt 0.196516 0.208795
vt 0.337537 0.404120
vt 0.332953 0.404120
vt 0.267026 0.404120
vt 0.231771 0.404120
vt 0.196516 0.404120
vt 0.130941 0.404120
vt 0.126005 0.404120
vt 0.130941 0.004904
vt 0.126005 0.004904
vt 0.196516 0.004904
vt 0.231771 0.004904
vt 0.267026 0.004904
vt 0.332953 0.004904
vt 0.337536 0.004904
vt 0.343474 0.287862
vt 0.343474 0.281387
vt 0.489371 0.287515
vt 0.489371 0.281983
vt 0.489371 0.150577
vt 0.489371 0.146199
vt 0.489371 0.142358
vt 0.343474 0.150126
vt 0.343474 0.146372
vt 0.343474 0.142846
vt 0.120556 0.495428
vt 0.120556 0.500011
vt 0.004883 0.500011
vt 0.004883 0.495428
vt 0.120556 0.783586
vt 0.120556 0.788170
vt 0.004883 0.788170
vt 0.004883 0.783586
vt 0.120556 0.358990
vt 0.120556 0.394245
vt 0.004883 0.394245
vt 0.004883 0.358990
vt 0.120556 0.889352
vt 0.120556 0.924607
vt 0.004883 0.924607
vt 0.004883 0.889352
vt 0.120556 0.281991
vt 0.120556 0.288480
vt 0.004883 0.288480
vt 0.004883 0.281991
vt 0.120556 0.142453
vt 0.120556 0.146692
vt 0.102228 0.146692
vt 0.102123 0.142453
vt 0.120556 0.778036
vt 0.004883 0.778036
vt 0.120556 0.636893
vt 0.120556 0.641799
vt 0.004883 0.641798
vt 0.004883 0.636893
vt 0.120556 0.854097
vt 0.004883 0.854097
vt 0.120556 0.429501
vt 0.004883 0.429500
vt 0.120556 0.990181
vt 0.120556 0.995117
vt 0.004883 0.995117
vt 0.004883 0.990181
vt 0.120556 0.293416
vt 0.004883 0.293416
vt 0.120556 0.150946
vt 0.102196 0.150946
vt 0.120556 0.010548
vt 0.101264 0.096227
vt 0.004883 0.096027
vt 0.004883 0.010548
vt 0.120556 0.647036
vt 0.004883 0.647036
vt 0.120556 0.506690
vt 0.004883 0.595684
vt 0.110116 0.597137
vt 0.110480 0.543359
vt 0.004883 0.542914
vt 0.004883 0.506690
vt 0.004883 0.750383
vt 0.098016 0.751129
vt 0.098211 0.700104
vt 0.004883 0.699491
vt 0.004883 0.200242
vt 0.101478 0.200154
vt 0.120556 0.004904
vt 0.004883 0.004904
vn 0.703869 0.710330 0.000000
vn 0.703869 0.710330 0.000000
vn -0.024161 0.999708 0.000000
vn -0.068500 0.997651 -0.000001
vn 0.000000 0.000000 -1.000000
vn 0.000000 0.000000 -1.000000
vn 0.000001 0.000000 -1.000000
vn 0.000003 0.000000 -1.000000
vn 0.000000 0.000000 1.000000
vn 0.000000 0.000000 1.000000
vn 0.000000 0.000000 1.000000
vn 0.000000 0.000000 1.000000
vn 0.069208 0.997602 -0.000002
vn 0.039253 0.999229 0.000001
vn 0.703869 0.710330 0.000000
vn 0.703870 0.710329 -0.000002
vn -0.000001 0.000000 1.000000
vn 0.000000 0.000000 1.000000
vn 0.000000 0.000000 1.000000
vn 0.000001 0.000000 1.000000
vn 0.000002 0.000000 -1.000000
vn 0.000000 0.000000 -1.000000
vn 0.000000 0.000000 -1.000000
vn 0.000001 0.000000 -1.000000
vn -0.703869 0.710330 0.000000
vn -0.703869 0.710330 0.000000
vn 0.039253 0.999229 0.000001
vn 0.069208 0.997602 -0.000002
vn -0.068500 0.997651 -0.000001
vn -0.024161 0.999708 0.000000
vn -0.703869 0.710330 0.000000
vn -0.703869 0.710330 0.000000
vn -0.085632 0.996327 -0.000001
vn -0.068500 0.997651 -0.000001
vn -0.703869 0.710330 0.000000
vn -0.703869 0.710330 -0.000001
vn 0.703869 0.710330 0.000000
vn 0.703869 0.710330 0.000000
vn -0.068500 0.997651 -0.000001
vn -0.085632 0.996327 -0.000001
vn -0.113530 0.993535 0.000002
vn -0.085632 0.996327 -0.000001
vn -0.703869 0.710330 -0.000001
vn -0.703869 0.710329 0.000000
vn 0.703869 0.710330 0.000000
vn 0.703869 0.710330 0.000000
vn -0.085632 0.996327 -0.000001
vn -0.113530 0.993535 0.000002
vn -0.703869 0.710330 0.000000
vn -0.703869 0.710330 0.000000
vn 0.021019 0.999779 0.000001
vn 0.039253 0.999229 0.000001
vn 0.703869 0.710330 0.000000
vn 0.703869 0.710330 0.000000
vn 0.039253 0.999229 0.000001
vn 0.021019 0.999779 0.000001
vn -0.703869 0.710330 0.000000
vn -0.703869 0.710330 0.000000
vn -0.024161 0.999708 0.000000
vn 0.021019 0.999779 0.000001
vn 0.703869 0.710330 0.000000
vn 0.703869 0.710330 0.000000
vn 0.021019 0.999779 0.000001
vn -0.024161 0.999708 0.000000
vn 0.703869 0.710330 0.000000
vn 0.703869 0.710330 0.000000
vn 0.703869 0.710330 0.000000
vn 0.703869 0.710330 0.000000
vn 0.703869 0.710330 0.000000
vn 0.703869 0.710330 0.000000
vn 0.703869 0.710330 0.000000
vn 0.703869 0.710330 0.000000
vn 0.703869 0.710330 0.000000
vn 0.703869 0.710330 0.000000
vn 0.703869 0.710330 0.000000
vn 0.703869 0.710330 0.000000
vn 0.703869 0.710330 0.000000
vn 0.703869 0.710330 0.000000
vn 0.703869 0.710330 0.000000
vn 0.703869 0.710330 0.000000
vn 0.703869 0.710330 0.000000
vn 0.703869 0.710330 0.000000
vn 0.703869 0.710330 0.000000
vn 0.703869 0.710330 0.000000
vn 0.703870 0.710329 -0.000002
vn 0.703869 0.710330 0.000000
vn 0.703869 0.710330 0.000000
vn 0.703870 0.710329 -0.000002
vn -0.703869 0.710330 0.000000
vn -0.703869 0.710330 0.000000
vn -0.703869 0.710330 0.000000
vn -0.703869 0.710330 0.000000
vn -0.703869 0.710330 0.000000
vn -0.703869 0.710330 0.000000
vn -0.703869 0.710330 0.000000
vn -0.703869 0.710330 0.000000
vn -0.703869 0.710330 0.000000
vn -0.703869 0.710330 0.000000
vn -0.703869 0.710330 0.000000
vn -0.703869 0.710330 0.000000
vn -0.703869 0.710330 0.000000
vn -0.703869 0.710330 0.000000
vn -0.703869 0.710330 0.000000
vn -0.703869 0.710330 0.000000
vn -0.703869 0.710330 -0.000001
vn -0.703869 0.710330 0.000000
vn -0.703869 0.710330 0.000000
vn -0.703869 0.710330 0.000000
vn -0.703869 0.710329 0.000000
vn -0.703869 0.710330 -0.000001
vn -0.703869 0.710330 0.000000
vn -0.703869 0.710329 0.000000
vn 0.000000 0.000000 -1.000000
vn 0.000000 0.000000 -1.000000
vn 0.000000 0.000000 -1.000000
vn 0.000000 0.000000 -1.000000
vn 0.000003 0.000000 -1.000000
vn 0.000001 0.000000 -1.000000
vn 0.000000 0.000000 -1.000000
vn 0.000002 0.000000 -1.000000
vn -0.000001 0.000000 1.000000
vn 0.000000 0.000000 1.000000
vn 0.000000 0.000000 1.000000
vn -0.000001 0.000000 1.000000
vn 0.000001 0.000000 1.000000
vn 0.000000 0.000000 1.000000
vn 0.000000 0.000000 1.000000
vn 0.000000 0.000000 1.000000
vn 0.000000 0.000000 1.000000
vn 0.000000 0.000000 1.000000
vn 0.000000 0.000000 1.000000
vn 0.000000 0.000000 1.000000
vn 0.000000 0.000000 1.000000
vn 0.000000 0.000000 1.000000
vn 0.000000 0.000000 1.000000
vn 0.000000 0.000000 1.000000
vn 0.000000 0.000000 1.000000
vn 0.000000 0.000000 1.000000
vn 0.000000 0.000000 1.000000
vn 0.000000 0.000000 1.000000
vn 0.000000 0.000000 1.000000
vn 0.000000 0.000000 1.000000
vn 0.000000 0.000000 -1.000000
vn 0.000000 0.000000 -1.000000
vn 0.000000 0.000000 -1.000000
vn 0.000001 0.000000 -1.000000
vn 0.000000 0.000000 -1.000000
vn 0.000000 0.000000 -1.000000
vn 0.000001 0.000000 -1.000000
vn 0.000000 0.000000 -1.000000
vn 0.000001 0.000000 -1.000000
vn 0.000001 0.000000 -1.000000
vn 0.000000 0.000000 -1.000000
vn 0.000000 0.000000 -1.000000
vn 0.000000 0.000000 -1.000000
vn 0.000000 0.000000 -1.000000
vn 1.000000 0.000000 0.000000
vn 1.000000 0.000000 0.000000
vn 1.000000 0.000000 0.000000
vn 1.000000 0.000000 0.000000
vn -1.000000 0.000000 0.000000
vn -1.000000 0.000000 0.000000
vn -1.000000 0.000000 0.000000
vn -1.000000 0.000000 0.000000
vn 1.000000 0.000000 0.000000
vn 1.000000 0.000000 0.000000
vn 1.000000 0.000000 0.000000
vn 1.000000 0.000000 0.000000
vn -1.000000 0.000000 0.000000
vn -1.000000 0.000000 0.000000
vn -1.000000 0.000000 0.000000
vn -1.000000 0.000000 0.000000
vn 0.000000 0.000000 -1.000000
vn 0.000000 0.000000 -1.000000
vn 0.000000 0.000000 -1.000000
vn 0.000000 0.000000 -1.000000
vn 0.000000 0.000000 -1.000000
vn 0.000001 0.000000 -1.000000
vn 0.000000 0.000000 -1.000000
vn 0.000000 0.000000 -1.000000
vn 0.000000 0.000000 1.000000
vn -0.000001 0.000000 1.000000
vn 0.000000 0.000000 1.000000
vn 0.000000 0.000000 1.000000
vn 0.000000 0.000000 1.000000
vn 0.000000 0.000000 1.000000
vn 0.000000 0.000000 1.000000
vn 0.000000 0.000000 1.000000
vn -1.000000 0.000000 0.000000
vn -1.000000 0.000000 0.000000
vn -1.000000 0.000000 0.000000
vn -1.000000 0.000000 0.000000
vn 1.000000 0.000000 0.000000
vn 1.000000 0.000000 0.000000
vn 1.000000 0.000000 0.000000
vn 1.000000 0.000000 0.000000
vn -1.000000 0.000000 0.000000
vn -1.000000 0.000000 0.000000
vn -1.000000 0.000000 0.000000
vn -1.000000 0.000000 0.000000
vn 1.000000 0.000000 0.000000
vn 1.000000 0.000000 0.000000
vn 1.000000 0.000000 0.000000
vn 1.000000 0.000000 0.000000
vn -1.000000 0.000000 0.000000
vn -1.000000 0.000000 0.000000
vn -1.000000 0.000000 0.000000
vn -1.000000 0.000000 0.000000
vn 1.000000 0.000000 0.000000
vn 1.000000 0.000000 0.000000
vn 1.000000 0.000000 0.000000
vn 1.000000 0.000000 0.000000
vn -1.000000 0.000000 0.000000
vn -1.000000 0.000000 0.000000
vn -1.000000 0.000000 0.000000
vn -1.000000 0.000000 0.000000
vn 1.000000 0.000000 0.000000
vn 1.000000 0.000000 0.000000
vn 1.000000 0.000000 0.000000
vn 1.000000 0.000000 0.000000
vn 0.000001 0.000000 -1.000000
vn 0.000000 0.000000 -1.000000
vn 0.000000 0.000000 -1.000000
vn 0.000000 0.000000 -1.000000
vn 0.000000 0.000000 -1.000000
vn 0.000000 0.000000 -1.000000
vn 0.000000 0.000000 -1.000000
vn 0.000000 0.000000 -1.000000
vn 0.000000 0.000000 -1.000000
vn 0.000000 0.000000 -1.000000
vn 0.000000 0.000000 1.000000
vn 0.000000 0.000000 1.000000
vn 0.000000 0.000000 1.000000
vn 0.000000 0.000000 1.000000
vn 0.000000 0.000000 1.000000
vn 0.000000 0.000000 1.000000
vn 0.000000 0.000000 1.000000
vn 0.000000 0.000000 1.000000
vn 0.000000 0.000000 1.000000
vn 0.000000 0.000000 1.000000
vn 0.000000 0.000000 1.000000
vn 0.000000 0.000000 1.000000
vn 0.000000 0.000000 1.000000
vn 0.000000 0.000000 1.000000
vn 0.000000 0.000000 1.000000
vn 0.000000 0.000000 1.000000
vn 0.000000 0.000000 1.000000
vn 0.000000 0.000000 1.000000
vn 0.000000 0.000000 1.000000
vn 0.000000 0.000000 1.000000
vn 0.000000 0.000000 1.000000
vn 0.000000 0.000000 1.000000
vn 0.000000 0.000000 1.000000
vn 0.000000 0.000000 1.000000
vn 0.000000 0.000000 -1.000000
vn 0.000000 0.000000 -1.000000
vn 0.000000 0.000000 -1.000000
vn 0.000000 0.000000 -1.000000
vn 0.000000 0.000000 -1.000000
vn 0.000000 0.000000 -1.000000
vn 0.000001 0.000000 -1.000000
vn 0.000000 0.000000 -1.000000
vn 0.000000 0.000000 -1.000000
vn 0.000000 0.000000 -1.000000
s off
g roof_geo walls_geo_grp ADJ MOV POS walls_grp
usemtl initialShadingGroup
f 26/1/1 27/2/2 9/3/3 13/4/4
f 30/5/5 48/6/6 49/7/7 8/8/8
f 24/9/9 45/10/10 46/11/11 1/12/12
f 8/13/13 19/14/14 29/15/15 30/16/16
f 37/17/17 43/18/18 44/19/19 7/20/20
f 31/21/21 50/22/22 51/23/23 4/24/24
f 31/25/25 32/26/26 19/14/27 8/27/28
f 13/4/29 9/3/30 34/28/31 35/29/32
f 16/30/33 13/4/34 35/29/35 36/31/36
f 25/32/37 26/1/38 13/4/39 16/30/40
f 7/33/41 16/30/42 36/31/43 37/34/44
f 24/35/45 25/32/46 16/30/47 7/36/48
f 32/26/49 33/37/50 22/38/51 19/14/52
f 28/39/53 29/15/54 19/14/55 22/38/56
f 33/37/57 34/28/58 9/3/59 22/38/60
f 27/2/61 28/39/62 22/38/63 9/3/64
f 1/40/65 17/41/66 25/32/67 24/35/68
f 17/41/69 14/42/70 26/1/71 25/32/72
f 14/42/73 5/43/74 27/2/75 26/1/76
f 23/44/77 28/39/78 27/2/79 5/43/80
f 20/45/81 29/15/82 28/39/83 23/44/84
f 30/16/85 29/15/86 20/45/87 2/46/88
f 18/47/89 32/26/90 31/25/91 4/48/92
f 21/49/93 33/37/94 32/26/95 18/47/96
f 6/50/97 34/28/98 33/37/99 21/49/100
f 35/29/101 34/28/102 6/50/103 12/51/104
f 36/31/105 35/29/106 12/51/107 15/52/108
f 37/34/109 36/31/110 15/52/111 3/53/112
f 2/54/113 47/55/114 48/6/115 30/5/116
f 8/8/117 49/7/118 50/22/119 31/21/120
f 3/56/121 42/57/122 43/18/123 37/17/124
f 7/20/125 44/19/126 45/10/127 24/9/128
f 43/18/129 42/57/130 40/58/131
f 44/19/132 43/18/133 40/58/134 11/59/135
f 45/10/136 44/19/137 11/59/138 41/60/139
f 46/11/140 45/10/141 41/60/142
f 48/6/143 47/55/144 38/61/145
f 49/7/146 48/6/147 38/61/148 10/62/149
f 50/22/150 49/7/151 10/62/152 39/63/153
f 51/23/154 50/22/155 39/63/156
f 17/64/157 1/65/158 52/66/159 53/67/160
f 3/68/161 15/69/162 55/70/163 54/71/164
f 23/72/165 5/73/166 56/74/167 57/75/168
f 6/76/169 21/77/170 59/78/171 58/79/172
f 47/80/173 2/81/174 60/82/175 61/83/176
f 39/84/177 10/85/178 79/86/179 80/87/180
f 42/88/181 3/68/182 54/71/183 62/89/184
f 41/90/185 11/91/186 63/92/187 64/93/188
f 12/94/189 6/76/190 58/79/191 65/95/192
f 5/73/193 14/96/194 66/97/195 56/74/196
f 15/69/197 12/94/198 65/95/199 55/70/200
f 14/96/201 17/64/202 53/67/203 66/97/204
f 18/98/205 4/99/206 68/100/207 67/101/208
f 2/81/209 20/102/210 69/103/211 60/82/212
f 21/77/213 18/98/214 67/101/215 59/78/216
f 20/102/217 23/72/218 57/75/219 69/103/220
f 10/85/221 38/104/222 78/105/223 79/86/224
f 51/106/225 39/84/226 80/87/227 83/107/228 81/108/229 70/109/230
f 11/91/231 40/110/232 71/111/233 63/92/234
f 46/112/235 41/90/236 64/93/237 84/113/238 86/114/239 87/115/240 85/116/241 72/117/242
f 40/110/243 42/88/244 62/89/245 73/118/246 75/119/247 76/120/248 74/121/249 71/111/250
f 1/65/251 46/112/252 72/117/253 52/66/254
f 38/104/255 47/80/256 61/83/257 77/122/258 82/123/259 78/105/260
f 4/124/261 51/106/262 70/109/263 68/125/264
